## Interface: 60000

## Title: ezFishing
## Notes: Fishing made easier.
## Author: Adirelle
## Version: @project-version@ 
## X-Date: @project-date-iso@
## LoadManagers: AddonLoader
## X-LoadOn-Always: delayed
## OptionalDeps: Ace3
## SavedVariables: ezFishingDB

Core.lua
